
5% errore
sequential, 500 relu, 500 relu, 1 linear, 300 epo, shuffle true, tutti param + cloudCover vicini, SGD(learning_rate=0.01, nesterov=True)
Testing set Mean Abs Error:  0.10 
Testing set Mean Squared Error:  0.02 
40.5063291139

10% errore
869/869 - 0s - loss: 0.0198 - mean_absolute_error: 0.0987 - mean_squared_error: 0.0198
Testing set Mean Abs Error:  0.10 
Testing set Mean Squared Error:  0.02 
65.4775604143

20%
869/869 - 0s - loss: 0.0210 - mean_absolute_error: 0.1019 - mean_squared_error: 0.0210
Testing set Mean Abs Error:  0.10 
Testing set Mean Squared Error:  0.02 
83.5443037975

LSTM vento, sequential, 100 relu, 100 relu, 1 linear, 300 epo, tutti param + cloudCover vicini, adam optim
Testing set Mean Abs Error:  0.10 
Testing set Mean Squared Error:  0.02 
82.7981651376

LSTM FIX

LSTM vento  con cloudCover e pressione vicini
Testing set Mean Abs Error:  0.09 
Testing set Mean Squared Error:  0.02 
85.3855005754  IN USO

LSTM vento ...  con 20% e R D
Testing set Mean Abs Error:  0.10 
Testing set Mean Squared Error:  0.02 
85.5581127733 IN USO (20%)




