5% umidità

sequential, 500 relu, 500 relu, 1 linear, 300 epo, shuffle true, tutti param, SGD(learning_rate=0.01, nesterov=True)
872/872 - 0s - loss: 0.0030 - mean_absolute_error: 0.0420 - mean_squared_error: 0.0030
Testing set Mean Abs Error:  0.04 
Testing set Mean Squared Error:  0.00 
68.6926605505

LSTM, sequential, 100 tanh, 100 tanh, 1 linear, 300 epo, tutti param, adam optim
Testing set Mean Abs Error:  0.03 
Testing set Mean Squared Error:  0.00 
81.6513761468

MEDIA FIX

LSTM, sequential, 100 tanh, 100 tanh, 1 linear, 300 epo, tutti param, adam optim
Testing set Mean Abs Error:  0.03 
Testing set Mean Squared Error:  0.00 
82.3935558113

LSTM con SGD peggiora di molto

LSTM FIX

LSTM, sequential, 100 tanh, 100 tanh, 1 linear, 300 epo, tutti param, adam optim
Testing set Mean Abs Error:  0.03 
Testing set Mean Squared Error:  0.00 
84.8101265823  IN USO

...
Testing set Mean Abs Error:  0.03 
Testing set Mean Squared Error:  0.00 
82.9689298044  IN USO (20%)




